…
    ## New names:
    ## * `` -> ...15
    ## * `` -> ...16
    ## * `` -> ...17

``` r
trashwheel_data
```

    ## # A tibble: 344 x 14
    ##    dumpster month  year date                weight_tons volume_cubic_ya…
    ##       <dbl> <chr> <dbl> <dttm>                    <dbl>            <dbl>
    ##  1        1 May    2014 2014-05-16 00:00:00        4.31               18
    ##  2        2 May    2014 2014-05-16 00:00:00        2.74               13
    ##  3        3 May    2014 2014-05-16 00:00:00        3.45               15
    ##  4        4 May    2014 2014-05-17 00:00:00        3.1                15
    ##  5        5 May    2014 2014-05-17 00:00:00        4.06               18
    ##  6        6 May    2014 2014-05-20 00:00:00        2.71               13
    ##  7        7 May    2014 2014-05-21 00:00:00        1.91                8
    ##  8        8 May    2014 2014-05-28 00:00:00        3.7                16
    ##  9        9 June   2014 2014-06-05 00:00:00        2.52               14
    ## 10       10 June   2014 2014-06-11 00:00:00        3.76               18
    ## # … with 334 more rows, and 8 more variables: plastic_bottles <dbl>,
    ## #   polystyrene <dbl>, cigarette_butts <dbl>, glass_bottles <dbl>,
    ## #   grocery_bags <dbl>, chip_bags <dbl>, sports_balls <int>,
    ## #   homes_powered <dbl>
…
\*combine precipitation datasets

``` r
precip_data = 
  full_join(trashwheel_data2, trashwheel_data3) %>%
  mutate(month = as.numeric(month), month = month.name[month])
```

    ## Joining, by = c("month", "total", "year")

``` r
precip_data
```

    ## # A tibble: 24 x 3
    ##    month     total  year
    ##    <chr>     <dbl> <dbl>
    ##  1 January    2.34  2017
    ##  2 February   1.46  2017
    ##  3 March      3.57  2017
    ##  4 April      3.99  2017
    ##  5 May        5.64  2017
    ##  6 June       1.4   2017
    ##  7 July       7.09  2017
    ##  8 August     4.44  2017
    ##  9 September  1.95  2017
    ## 10 October    0     2017
    ## # … with 14 more rows
…
``` r
pols_month
```

    ## # A tibble: 822 x 9
    ##    year  month    gov_gop sen_gop rep_gop gov_dem sen_dem rep_dem president
    ##    <chr> <chr>      <dbl>   <dbl>   <dbl>   <dbl>   <dbl>   <dbl>     <dbl>
    ##  1 1947  January       23      51     253      23      45     198         1
    ##  2 1947  February      23      51     253      23      45     198         1
    ##  3 1947  March         23      51     253      23      45     198         1
    ##  4 1947  April         23      51     253      23      45     198         1
    ##  5 1947  May           23      51     253      23      45     198         1
    ##  6 1947  June          23      51     253      23      45     198         1
    ##  7 1947  July          23      51     253      23      45     198         1
    ##  8 1947  August        23      51     253      23      45     198         1
    ##  9 1947  Septemb…      23      51     253      23      45     198         1
    ## 10 1947  October       23      51     253      23      45     198         1
    ## # … with 812 more rows
…
    ## Parsed with column specification:
    ## cols(
    ##   date = col_character(),
    ##   close = col_double()
    ## )

``` r
snp_data
```

    ## # A tibble: 787 x 3
    ##    year  month    close
    ##    <chr> <chr>    <dbl>
    ##  1 2015  January  2080.
    ##  2 2015  January  2063.
    ##  3 2015  January  2107.
    ##  4 2015  January  2086.
    ##  5 2015  February 2068.
    ##  6 2015  February 2104.
    ##  7 2015  February 1995.
    ##  8 2014  January  2059.
    ##  9 2014  March    2068.
    ## 10 2014  January  2018.
    ## # … with 777 more rows
…
``` r
unemployment_data
```

    ## # A tibble: 816 x 3
    ##     year month percent
    ##    <dbl> <chr>   <dbl>
    ##  1  1948 Jan       3.4
    ##  2  1948 Feb       3.8
    ##  3  1948 Mar       4  
    ##  4  1948 Apr       3.9
    ##  5  1948 May       3.5
    ##  6  1948 Jun       3.6
    ##  7  1948 Jul       3.6
    ##  8  1948 Aug       3.9
    ##  9  1948 Sep       3.8
    ## 10  1948 Oct       3.7
    ## # … with 806 more rows
…
<!-- end list -->

``` r
snp_pols = 
  left_join(snp_data, pols_month) 
```

    ## Joining, by = c("year", "month")

``` r
snp_pols
```

    ## # A tibble: 787 x 10
    ##    year  month close gov_gop sen_gop rep_gop gov_dem sen_dem rep_dem
    ##    <chr> <chr> <dbl>   <dbl>   <dbl>   <dbl>   <dbl>   <dbl>   <dbl>
    ##  1 2015  Janu… 2080.      31      54     245      18      44     188
    ##  2 2015  Janu… 2063.      31      54     245      18      44     188
    ##  3 2015  Janu… 2107.      31      54     245      18      44     188
    ##  4 2015  Janu… 2086.      31      54     245      18      44     188
    ##  5 2015  Febr… 2068.      31      54     245      18      44     188
    ##  6 2015  Febr… 2104.      31      54     245      18      44     188
    ##  7 2015  Febr… 1995.      31      54     245      18      44     188
    ##  8 2014  Janu… 2059.      29      45     232      21      53     200
    ##  9 2014  March 2068.      29      45     233      21      53     199
    ## 10 2014  Janu… 2018.      29      45     232      21      53     200
    ## # … with 777 more rows, and 1 more variable: president <dbl>

``` r
unempoly_snp_pols = 
  left_join(snp_pols, pols_month) 
```

    ## Joining, by = c("year", "month", "gov_gop", "sen_gop", "rep_gop", "gov_dem", "sen_dem", "rep_dem", "president")

``` r
unempoly_snp_pols
```

    ## # A tibble: 787 x 10
    ##    year  month close gov_gop sen_gop rep_gop gov_dem sen_dem rep_dem
    ##    <chr> <chr> <dbl>   <dbl>   <dbl>   <dbl>   <dbl>   <dbl>   <dbl>
    ##  1 2015  Janu… 2080.      31      54     245      18      44     188
    ##  2 2015  Janu… 2063.      31      54     245      18      44     188
    ##  3 2015  Janu… 2107.      31      54     245      18      44     188
    ##  4 2015  Janu… 2086.      31      54     245      18      44     188
    ##  5 2015  Febr… 2068.      31      54     245      18      44     188
    ##  6 2015  Febr… 2104.      31      54     245      18      44     188
    ##  7 2015  Febr… 1995.      31      54     245      18      44     188
    ##  8 2014  Janu… 2059.      29      45     232      21      53     200
    ##  9 2014  March 2068.      29      45     233      21      53     199
    ## 10 2014  Janu… 2018.      29      45     232      21      53     200
    ## # … with 777 more rows, and 1 more variable: president <dbl>
